Proto Recv-Q Send-Q  Local Address          Foreign Address        (state)    
tcp4       0      0  10.0.0.4.56262         17.248.128.235.https   ESTABLISHED
tcp4       0      0  10.0.0.4.56261         17.248.128.235.https   ESTABLISHED
tcp4       0      0  10.0.0.4.56260         a23-5-251-27.dep.http  ESTABLISHED
tcp4       0      0  10.0.0.4.56259         17.248.128.235.https   ESTABLISHED
tcp4       0      0  10.0.0.4.56258         a23-37-233-74.de.https ESTABLISHED
tcp6       0      0  2601:647:4903:30.56257 pf-in-x6c.1e100..imaps ESTABLISHED
tcp6       0      0  2601:647:4903:30.56253 sfo03s01-in-x05..https ESTABLISHED
tcp6       0      0  2601:647:4903:30.56250 pc-in-x5f.1e100..http  ESTABLISHED
tcp6       0      0  2601:647:4903:30.56238 nuq04s29-in-x0e..https ESTABLISHED
tcp6       0      0  2601:647:4903:30.56237 sfo03s01-in-x0e..https ESTABLISHED
tcp6       0      0  2601:647:4903:30.56235 sfo03s06-in-x0e..https ESTABLISHED
tcp6       0      0  2601:647:4903:30.56218 nuq04s29-in-x04..https ESTABLISHED
tcp6       0      0  2601:647:4903:30.56213 sfo03s06-in-x0e..https ESTABLISHED
tcp6       0      0  2601:647:4903:30.56212 sfo03s01-in-x0e..https ESTABLISHED
tcp6       0      0  2601:647:4903:30.56210 sfo03s01-in-x04..https ESTABLISHED
tcp6       0      0  2601:647:4903:30.56209 nuq04s29-in-x0e..https ESTABLISHED
tcp6       0      0  2601:647:4903:30.56205 2607:f820:42::16.http  ESTABLISHED
tcp6       0      0  2601:647:4903:30.56204 2607:f820:42::16.http  ESTABLISHED
tcp6       0      0  2601:647:4903:30.56195 text-lb.ulsfo.wi.https ESTABLISHED
tcp6       0      0  2601:647:4903:30.56181 sfo03s01-in-x0d..https ESTABLISHED
tcp4       0      0  10.0.0.4.56172         server-216-137-3.http  ESTABLISHED
tcp4       0      0  10.0.0.4.56171         server-216-137-3.http  ESTABLISHED
tcp4       0      0  10.0.0.4.56170         server-216-137-3.http  ESTABLISHED
tcp4       0      0  10.0.0.4.56169         server-216-137-3.http  ESTABLISHED
tcp4       0      0  10.0.0.4.56166         server-216-137-3.http  ESTABLISHED
tcp4       0      0  10.0.0.4.56165         server-216-137-3.http  ESTABLISHED
tcp4       0      0  10.0.0.4.56159         sfo03s01-in-f194.https ESTABLISHED
tcp4       0      0  10.0.0.4.56158         ec2-52-204-142-1.https CLOSE_WAIT 
tcp4       0      0  10.0.0.4.56157         72.21.207.79.https     CLOSE_WAIT 
tcp4       0      0  10.0.0.4.56156         72.21.207.79.https     CLOSE_WAIT 
tcp4       0      0  10.0.0.4.56154         163-172-18-43.re.macro ESTABLISHED
tcp6       0      0  2601:647:4903:30.56124 sfo03s06-in-x0e..https ESTABLISHED
tcp6       0      0  2601:647:4903:30.56061 sfo03s01-in-x0e..https ESTABLISHED
tcp4       0      0  10.0.0.4.56032         match.amazonbrow.https ESTABLISHED
tcp6       0      0  2601:647:4903:30.56027 nuq04s29-in-x04..https ESTABLISHED
tcp4       0      0  10.0.0.4.55243         10.0.0.13.8009         ESTABLISHED
tcp4       0      0  10.0.0.4.52254         38.4a.37a9.ip4.s.https ESTABLISHED
tcp4       0      0  10.0.0.4.52229         17.249.12.23.5223      ESTABLISHED
tcp4       0      0  10.0.0.4.52214         17.172.232.174.5223    ESTABLISHED
tcp6       0      0  2601:647:4903:30.52209 ph-in-x7d.1e100..jabbe ESTABLISHED
tcp6       0      0  2601:647:4903:30.52208 pg-in-xbc.1e100..5228  ESTABLISHED
tcp4       0      0  *.54099                *.*                    LISTEN    